002be2e36338417a20aa5ca39e7dd4a31b8fe80d57485cf7db77b60825b0b61d4f0434c5006ef9c0960e5f1101149334416b4c9de4e0af87580e47ac350a9376  ./CONTRIBUTING.md
024fe6185c41939474e157af27e0dbf5d04021a485fa46220b549f002b25b8f8946e9232e44238cdff35aecdda26d181c18013239e73df9b34ee0c4c95fd5e24  ./srcc/libpoint.h
06c3747f53a4f9e1ee4b2bb36cad5af5762925a215ac3664bd8c4436860a2b1b33fc8385bf09346f4a499bcc60e3022004b35954e3b7a75ed7c9e19a45e4b4ea  ./srctex/licences.tex.orig
172123d86047d3ea3390a816ea06faebe366fa05039581ac4be7b5f37bc7fbfe6da6c02015c23d734396c1324add63bd59caacf7ada57fd510165350ae911cc1  ./srcc/libusage.c
1dcfae9efc3ba57695b8dab1f439472e6a5cfa547d570212d81759881b217417c14251b1153cbe4a7eafe1920cacf3dd2cc1f17647e00d3c56a2ed1b62a6ebdf  ./VERSION.md
210c2a61d9bcfe74c06caa28e7ce4431564c88df36d3d4cac7171f55ae983274c530d546bb0153ef84e4f165faba7039b18c6dd55a093d2b25463aaa1aa78ff6  ./mk/shell.mk
2d529a9312e0ddea11992a7ec9a9f108154a5e8f56117acb24d6a93661634c45056b92d86a381f542d643730e69aecf79d5380e4702211491245369fdb400800  ./CHANGELOG.md
2f69b6b596915791a85ec73a17c762e064ebc3bb9b538a2986c58df85cddc2bf28a1ce57b6842bf4ff888be7a229cd18a762a0c8c32d5ca539a453d3d2b46ff9  ./data/07.txt
4190429020f4012cbf9982561db1b6fd63c8f5b0b99e2b75e881ae22c02b9a5b38e6fe18f52a7ddb5005413b2694e83975e0b6a72c7b7b27e299cc4398b96460  ./srcc/libdata.h
43791c2c7ad992003e17d93e5a173b541e04754479c58f20855fdfc00f9f3b2971e7407c4d3d6c307d985ec21b718bb07d77b2de773900e0784404f270b8a5cf  ./data/03.txt
510382ccbb79c9aa1b8d6d1d10ce31bf9a27660dd66f9c8619dfe764b142ad993f277264eb391350679fdb85247e14fbb63889f4eb46c17e588b5d460e3b05d1  ./mk/clean.mk
537cc1b4964572dd838124f47afafc9527b9df405d29aeb144a84ad23a2d94bca601e6ec8cb2f628fa9a7180a734a9e76c1fd79088d84d2abdcf05a48ffa2891  ./srcc/libdata.c
5a38e473404189c272a197a3f7e8907512af656e665632e83f466a0749965f5628e23d4fc4d74bc031f9c9129e09c27c252d4d913fc2a250379feb16d28d798c  ./mk/libs.mk
5ac5587888b25bc2404084e9b287fad3e0e46ffd75819b506dfa9de103ae0b818e713fa441a3185347acffa7319bd5cecf09db0c4276b6d1d800be0374c33fb0  ./srctex/02a.tex
5d430f02d4c13d6c1b0f1db7f5af36e9c8da8e59b719520ca576e9be992e00d7b8519060d29013eeebf9897c2dd7bf91958c02576c000e506a81c184ff8ed5fb  ./data/04.txt
7a110f8e5bb3d2195298a390e9e8f30c66a307bf055aa14b367489a77768c5fc6c9d82566be693333b562432a9696f38fda744c0a98fb5b85c56ca5360a5408a  ./srcc/libusage.h
7fe98ff0b90099c7f1cf146655b0c4ace072c8630f42581cd5906932274b7cca53988ef3aabada6f9c01a336cead6178cfb1ee6d49e88b9981ab18edc7d6501f  ./srctex/main.tex.orig
8e42770de3c3c806a0f8966d3724b50654fb34ade0648561fb3fa5f81122ece4fd32e5834f88c323b03122c517f54158cc47833a11f8c76e02bbeace8a4cab44  ./mk/dirs.mk
929b6ab948992ac9f8f6b7cfa8fde8f24c19f7f2bbd1c8df2f9962dbc16406c62cf1a02a786fa659cbac89e7f1e8d1a7cb45672aafa365100d285da1096220f9  ./mk/perl.mk
96a177101c7f639ed498dd3f67296b057541ef6c903887deb60f7776cc4f8c24b845efd61348d88c83c907b9b311d207dfda360e592dfc7adb843819dca94c73  ./TODO.md
a59dd76d456397f8fe6c54dcea3cd372e37d9680a986a5b80f50a0e3ccb885e2eb483c028de020f99ea58099f9100030e3b89000110ea9dd67656cdc8fa5c747  ./data/02.txt
abfee71f9c5f1c3a2c6a70f817ece57d0f679826a6c58c8080e9a95cb7ce03ebf62de9b8ecbbf3aa77334c91b04e23f25b0d2dca5d61be34c5e93e6e38de6e2f  ./data/05.txt
ac9267a791841f68ce651a8792d11a544edb9e69aaa523d880fac819b97938138b3e38153e810270bd6f308c01d8691293e45b48e6a114bca03ab771bbfbb782  ./img/zero_logo.png
aeede80d9d5cf0c1c4653c96f571021f3678f698f1c50cd584da963e0bbaca6b5ae0eff08c88b5c4ef75c41e65ad6bf4feb9a01fac1e6351ba902c16c04c8edd  ./README.md
b1d457cd83944c6a9f66060e5b578385f34869de7d9b97ee446d7a67be9a1a5aa0219485e2dbc9ae7ab781cd61419a6fe2ef5edcc43c6ceffeed010b3e472306  ./data/01.txt
b44ae32700ec7ec7f65bb7826c32b6637de6f1ee89e66fa1ff327a6064e79cbe3ed83d2f095983bae94666f7943e2b9de9a0101b0c661de5606487857673601d  ./srctex/02b.tex.orig
bedc7e9763662e8b721bcdf9aa6a8e388da8cbf2196f8c5f844acff3285bde24caeaabf56af6a6f3d2fe80e530035a0f2d8e76b7258ec1cc5ed0210afbf49a9b  ./srcc/main.c.orig
c961e0325e45dbfd2b357d82d50252d3105d588709d365e1cd7b9290dd82fc153fd6fa230de20d215f166d578eddb838566766c9dcb365ea49c0f391b1d9b10f  ./mk/generic.mk
cf37f7eb1ad6ab845322d19273a756e3c890fbd2eace192a43d64ab79d014d34f228c3e41fc06e0e99f2252da87106ee968ab20f7eaad7a5c6bbc365ef62a325  ./mk/progs.mk
e6a411ae5cdf489b17ee376fcb8fd939ac61104fe38bca0d2fa4821f6b8e3ec15c4d22e65dc2760cdfaf008c989af479b43c3f121b5f37010db8ec9a9564b464  ./srctex/packages.tex.orig
e883979768cce9e637a06de59f740fbd1d7c533190be129f16352d2f1f8b02a1a472a2f917d38a8533df2c1bc2dd093cd6c66d93131a47ba6a089bab50995b3d  ./srcc/libpoint.c
e9e3f78b3f2ce241a0306c11900a6ca2a39efd93ea9c852f4978f9ca56f54be0eb6b3c17f31e153981f00249e0c1e494425c616446684648f94f0bf40a3cc10f  ./LICENSE
f27630640d13b3cf2383c1ad950dc1fa1a2e743a20d6bcc40b3c4b0f592894c17d7ffcee01886d9b6280f82cae3526a31cc85a2eab18203c339f14041be5020f  ./Makefile
f9b043631dd58786d18eccd86ae88c696ffab08ee51337a43bd8bd4a126edcd3a310adfe3e56d1b11e4d0a4fa62c966c9a0ff08dc5f4eec94e29170474ff55d4  ./data/06.txt
fe74c0af9b9a5706b616d252e87137446805e92942829f295088d7c9612b8761241fd7eaf3f8958faed6b7381dee86abcfb6cbf987a13a9af9574ee39b68a6db  ./mk/pdf.mk
